{
  "brand": {
    "flag": ["b", "brand"],
    "expected": ["bluehost", "hostmonster", "justhost", "fastdomain", "betabh", "betahm", "betajh", "betafd"]
  },
  "domain": {
    "flag": ["d", "domain"],
    "expected": ""
  },
  "custId": {
    "flag": ["cid", "custId", "id", "i"],
    "expected": ""
  },
  "type": {
    "flag": ["t", "type"],
    "expected": ["shared", "vps", "dedi", "cloud"]
  },
  "browser": {
    "flag": ["browser"],
    "expected": ["chrome", "firefox", "phantom"]
  },
  "baseline": {
    "flag": ["baseline"],
    "expected": true
  },
  "verbose": {
    "flag": ["verbose"],
    "expected": true
  },
  "env": {
    "flag": ["e", "env", "environment"],
    "expected": ["stg", "prod", "pilot", "devga", "dev"]
  }
}
